<?xml version="1.0" encoding="utf-8"?>
<!-- Generator: Adobe Illustrator 18.1.1, SVG Export Plug-In . SVG Version: 6.00 Build 0)  -->
<svg version="1.1" id="Capa_1" xmlns="http://www.w3.org/2000/svg" xmlns:xlink="http://www.w3.org/1999/xlink" x="0px" y="0px"
	 width="200px" height="30px" viewBox="0 0 200 30" enable-background="new 0 0 200 30" xml:space="preserve">
<path fill="#A1A6A9" stroke="#A1A6A9" stroke-width="2.472" d="M12,26.5c6.2,0,15.7-2.6,22.3-10.5c6.5,7.8,16,10.3,22.1,10.3
	c6.2,0,15.7-2.6,22.4-10.5c6.5,7.8,16,10.3,22.1,10.3c6.2,0,15.7-2.6,22.3-10.5c6.5,7.8,16,10.3,22.1,10.3c6.2,0,15.7-2.6,22.3-10.5
	c6.5,7.8,16,10.3,22.1,10.3c2.4,0,4.6-0.3,6.6-0.8V14.3c-2.2,0.5-4.6,0.9-7.4,0.9c-6.1,0-15.5-2.5-22-10.3
	c-6.6,7.8-16,10.4-22.2,10.5c-6.1,0-15.5-2.5-22-10.3c-6.6,7.8-16.1,10.4-22.2,10.5c-6.1,0-15.5-2.5-22-10.3
	c-6.6,7.9-16.1,10.4-22.2,10.5c-6.1,0-15.5-2.5-22-10.3c-6.6,7.9-16,10.4-22.2,10.5c-3,0-5.4-0.7-7.4-1.8v10.6
	C6.9,25.8,9.1,26.5,12,26.5z"/>
</svg>
